Resources Kit - 10. Building inference models
…
Identify

In Table 2, we can see the variables which will be used to represent lexical sophistication and learner proficiency. The explanatory variables which will be used to represent lexical sophistication are chars, sylls, morphs, and freq. The response variable which will be used to represent learner proficiency is placement.

Let’s read in the dataset.

pelic <- read_csv("data/derived/pelic/pelic_transformed.csv")

pelic

# A tibble: 276 × 6
   id    placement chars sylls morphs     freq
   <chr>     <dbl> <dbl> <dbl>  <dbl>    <dbl>
 1 aa0          80  6.01  1.90   1.66  498076.
 2 aa1          66  5.96  1.85   1.53  657678.
 3 ab8          40  5.81  1.81   1.52  375383.
 4 ac3          65  5.98  1.81   1.52  419318.
 5 ad4          72  6.26  1.93   1.69  345658.
 6 ad9          56  5.82  1.72   1.57  375747.
 7 ae0          61  4.99  1.53   1.35 1087512.
 8 ae2          81  6.32  1.98   1.69  403618.
 9 ae4          69  5.23  1.68   1.45  788536.
10 ae9          71  5.64  1.75   1.47  586251.
# ℹ 266 more rows
…
Calculate the effect size

Step 1. We will use the specify() function to add the formula notation to specify the relationship between the response and explanatory variables.

# Specify the model
pelic_spec <-
  pelic |>
  specify(placement ~ sylls_z + freq_z)

pelic_spec

Response: placement (numeric)
Explanatory: sylls_z (numeric), freq_z (numeric)
# A tibble: 276 × 3
   placement sylls_z freq_z
       <dbl>   <dbl>  <dbl>
 1        80   0.691 -0.367
 2        66   0.381  0.631
 3        40   0.157 -1.13 
 4        65   0.123 -0.859
 5        72   0.822 -1.32 
 6        56  -0.378 -1.13 
 7        61  -1.49   3.32 
 8        81   1.15  -0.957
 9        69  -0.624  1.45 
10        71  -0.189  0.184
# ℹ 266 more rows
…
