Resources Kit - 03. Descriptive assessment of datasets
…
The result is a 2x3 data frame which includes both the mean and median of the percent_passive variable for each of the two levels of the lang_variety variable.

The group_by() function can also be used to group by multiple variables. For example, let’s calculate the mean and median of the percent_passive variable in the brown_fam_df dataset grouped by the lang_variety and genre variables.

# Mean and median of `percent_passive` grouped by
# `lang_variety` and `genre`
brown_fam_df |>
  group_by(lang_variety, genre) |>
  summarize(
    mean_percent_passive = mean(percent_passive),
    median_percent_passive = median(percent_passive)
  )

# A tibble: 30 × 4
# Groups:   lang_variety [2]
   lang_variety genre            mean_percent_passive median_percent_passive
   <fct>        <fct>                           <dbl>                  <dbl>
 1 AmE          press reportage                 11.5                   11.0 
 2 AmE          press editorial                 10.6                   10.1 
 3 AmE          press reviews                    9.54                   9.77
 4 AmE          religion                        14.3                   14.3 
 5 AmE          skills / hobbies                14.9                   13.9 
 6 AmE          popular lore                    14.0                   12.7 
 7 AmE          belles lettres                  12.0                   11.7 
 8 AmE          miscellaneous                   23.5                   23.3 
 9 AmE          learned                         21.3                   18.3 
10 AmE          general fiction                  6.22                   5.89
# ℹ 20 more rows
…
Just as before, we can add multiple grouping variables to group_by(). Let’s add lang_variety to the grouping and calculate the number of observations n() grouped by the genre and lang_variety variables in the brown_fam_df dataset.

# Cross-tabulation for `genre` and `lang_variety`
brown_fam_df |>
  group_by(genre, lang_variety) |>
  summarize(
    n = n(),
  )

# A tibble: 30 × 3
# Groups:   genre [15]
   genre            lang_variety     n
   <fct>            <fct>        <int>
 1 press reportage  AmE             88
 2 press reportage  BrE            132
 3 press editorial  AmE             54
 4 press editorial  BrE             81
 5 press reviews    AmE             34
 6 press reviews    BrE             51
 7 religion         AmE             34
 8 religion         BrE             51
 9 skills / hobbies AmE             72
10 skills / hobbies BrE            114
# ℹ 20 more rows
…
We can also add multiple grouping variables to count() and create contingency tables.

Let’s add lang_variety to the grouping and create a cross-tabulation for genre and lang_variety variables in the brown_fam_df dataset.

# Cross-tabulation for `genre` and `lang_variety`
brown_fam_df |>
  count(genre, lang_variety)

# A tibble: 30 × 3
   genre            lang_variety     n
   <fct>            <fct>        <int>
 1 press reportage  AmE             88
 2 press reportage  BrE            132
 3 press editorial  AmE             54
 4 press editorial  BrE             81
 5 press reviews    AmE             34
 6 press reviews    BrE             51
 7 religion         AmE             34
 8 religion         BrE             51
 9 skills / hobbies AmE             72
10 skills / hobbies BrE            114
# ℹ 20 more rows
…
